{
  "project_info": {
    "project_number": "630238575396",
    "firebase_url": "https://mi-escuela-app.firebaseio.com",
    "project_id": "mi-escuela-app",
    "storage_bucket": "mi-escuela-app.appspot.com"
  },
  "client": [
    {
      "client_info": {
        "mobilesdk_app_id": "1:630238575396:android:b4d9f32bd558cf51",
        "android_client_info": {
          "package_name": "cl.miescuela.mchav"
        }
      },
      "oauth_client": [
        {
          "client_id": "630238575396-9r63a3e27ovhkr8h0u88g1o8vq0rglr6.apps.googleusercontent.com",
          "client_type": 3
        }
      ],
      "api_key": [
        {
          "current_key": "AIzaSyCtX1DB45NW6vdsKRjf2cKI1bnsRxYBqIo"
        }
      ],
      "services": {
        "analytics_service": {
          "status": 1
        },
        "appinvite_service": {
          "status": 1,
          "other_platform_oauth_client": []
        },
        "ads_service": {
          "status": 2
        }
      }
    }
  ],
  "configuration_version": "1"
}